tek0003CH1.csv

Record Length,Analog:10000
Sample Interval,CH1:1e-6
Vertical Units,CH1:V,,,
Vertical Scale,CH1:1.00,,,
Vertical Offset,CH1:0.0,,,
Horizontal Units,s,,,
Horizontal Scale,0.001,,,
Model Number,SDS1104X-E,,,
Serial Number,SDSMMDBX2R1294,,,
Software Version,7.6.1.20 R3,,,
Source,CH1
Second,Volt
-4.700e-04,0.08
-4.690e-04,0.08
-4.680e-04,0.08
-4.670e-04,0.08
-4.660e-04,0.12
-4.650e-04,0.08
-4.640e-04,0.12
-4.630e-04,0.08
-4.620e-04,0.16
-4.610e-04,0.08
-4.600e-04,0.08
-4.590e-04,0.08
-4.580e-04,0.12
-4.570e-04,0.08
-4.560e-04,0.04
-4.550e-04,0.16
-4.540e-04,0.12
-4.530e-04,0.08
-4.520e-04,0.08
-4.510e-04,0.08
-4.500e-04,0.08
-4.490e-04,0.12
-4.480e-04,0.08
-4.470e-04,0.12
-4.460e-04,0.08
-4.450e-04,0.08
-4.440e-04,0.08
-4.430e-04,0.08
-4.420e-04,0.12
-4.410e-04,0.08
-4.400e-04,0.04
-4.390e-04,0.16
-4.380e-04,0.12
-4.370e-04,0.08
-4.360e-04,0.08
-4.350e-04,0.08
-4.340e-04,0.08
-4.330e-04,0.08
-4.320e-04,0.08
-4.310e-04,0.12
-4.300e-04,0.12
-4.290e-04,0.08
-4.280e-04,0.12
-4.270e-04,0.08
-4.260e-04,0.08
-4.250e-04,0.08
-4.240e-04,0.08
-4.230e-04,0.08
-4.220e-04,0.08
-4.210e-04,0.12
-4.200e-04,0.12
-4.190e-04,0.04
-4.180e-04,0.08
-4.170e-04,0.08
-4.160e-04,0.08
-4.150e-04,0.08
-4.140e-04,0.16
-4.130e-04,0.12
-4.120e-04,0.08
-4.110e-04,0.12
-4.100e-04,0.08
-4.090e-04,0.12
-4.080e-04,0.08
-4.070e-04,0.08
-4.060e-04,0.12
-4.050e-04,0.12
-4.040e-04,0.04
-4.030e-04,0.12
-4.020e-04,0.08
-4.010e-04,0.08
-4.000e-04,0.08
-3.990e-04,0.08
-3.980e-04,0.12
-3.970e-04,0.08
-3.960e-04,0.12
-3.950e-04,0.08
-3.940e-04,0.08
-3.930e-04,0.08
-3.920e-04,0.04
-3.910e-04,0.08
-3.900e-04,0.08
-3.890e-04,0.04
-3.880e-04,0.08
-3.870e-04,0.08
-3.860e-04,0.08
-3.850e-04,0.08
-3.840e-04,0.08
-3.830e-04,0.08
-3.820e-04,0.12
-3.810e-04,0.08
-3.800e-04,0.08
-3.790e-04,0.08
-3.780e-04,0.08
-3.770e-04,0.08
-3.760e-04,0.08
-3.750e-04,0.08
-3.740e-04,0.12
-3.730e-04,0.12
-3.720e-04,0.08
-3.710e-04,0.12
-3.700e-04,0.08
-3.690e-04,0.08
-3.680e-04,0.08
-3.670e-04,0.08
-3.660e-04,0.08
-3.650e-04,0.12
-3.640e-04,0.08
-3.630e-04,0.08
-3.620e-04,0.12
-3.610e-04,0.08
-3.600e-04,0.08
-3.590e-04,0.08
-3.580e-04,0.08
-3.570e-04,0.12
-3.560e-04,0.08
-3.550e-04,0.08
-3.540e-04,0.08
-3.530e-04,0.08
-3.520e-04,0.04
-3.510e-04,0.08
-3.500e-04,0.08
-3.490e-04,0.08
-3.480e-04,0.08
-3.470e-04,0.12
-3.460e-04,0.04
-3.450e-04,0.12
-3.440e-04,0.12
-3.430e-04,0.08
-3.420e-04,0.08
-3.410e-04,0.12
-3.400e-04,0.08
-3.390e-04,0.04
-3.380e-04,0.12
-3.370e-04,0.12
-3.360e-04,0.08
-3.350e-04,0.12
-3.340e-04,0.12
-3.330e-04,0.12
-3.320e-04,0.12
-3.310e-04,0.08
-3.300e-04,0.08
-3.290e-04,0.08
-3.280e-04,0.08
-3.270e-04,0.12
-3.260e-04,0.12
-3.250e-04,0.08
-3.240e-04,0
-3.230e-04,0.12
-3.220e-04,0.08
-3.210e-04,0.08
-3.200e-04,0.12
-3.190e-04,0.08
-3.180e-04,0.08
-3.170e-04,0.08
-3.160e-04,0.12
-3.150e-04,0.12
-3.140e-04,0.12
-3.130e-04,0.12
-3.120e-04,0.12
-3.110e-04,0.08
-3.100e-04,0.08
-3.090e-04,0.08
-3.080e-04,0.08
-3.070e-04,0.08
-3.060e-04,0.08
-3.050e-04,0.08
-3.040e-04,0.08
-3.030e-04,0.12
-3.020e-04,0.12
-3.010e-04,0.12
-3.000e-04,0.08
-2.990e-04,0.08
-2.980e-04,0.08
-2.970e-04,0.08
-2.960e-04,0.08
-2.950e-04,0.12
-2.940e-04,0.08
-2.930e-04,0.12
-2.920e-04,0.08
-2.910e-04,0.08
-2.900e-04,0.08
-2.890e-04,0.12
-2.880e-04,0.08
-2.870e-04,0.08
-2.860e-04,0.08
-2.850e-04,0.08
-2.840e-04,0.08
-2.830e-04,0.12
-2.820e-04,0.08
-2.810e-04,0.08
-2.800e-04,0.08
-2.790e-04,0.08
-2.780e-04,0.08
-2.770e-04,0.08
-2.760e-04,0.16
-2.750e-04,0.12
-2.740e-04,0.12
-2.730e-04,0.16
-2.720e-04,0.12
-2.710e-04,0.12
-2.700e-04,0.08
-2.690e-04,0.08
-2.680e-04,0.08
-2.670e-04,0.08
-2.660e-04,0.12
-2.650e-04,0.08
-2.640e-04,0.08
-2.630e-04,0.08
-2.620e-04,0.12
-2.610e-04,0.12
-2.600e-04,0.12
-2.590e-04,0.08
-2.580e-04,0.08
-2.570e-04,0.08
-2.560e-04,0.12
-2.550e-04,0.08
-2.540e-04,0.12
-2.530e-04,0.12
-2.520e-04,0.08
-2.510e-04,0.04
-2.500e-04,0.12
-2.490e-04,0.12
-2.480e-04,0.12
-2.470e-04,0.12
-2.460e-04,0.08
-2.450e-04,0.08
-2.440e-04,0.08
-2.430e-04,0.08
-2.420e-04,0.04
-2.410e-04,0.08
-2.400e-04,0.08
-2.390e-04,0.08
-2.380e-04,0.08
-2.370e-04,0.12
-2.360e-04,0.08
-2.350e-04,0.08
-2.340e-04,0.08
-2.330e-04,0.08
-2.320e-04,0.12
-2.310e-04,0.08
-2.300e-04,0.08
-2.290e-04,0.08
-2.280e-04,0.12
-2.270e-04,0.08
-2.260e-04,0.08
-2.250e-04,0.12
-2.240e-04,0.08
-2.230e-04,0.12
-2.220e-04,0.12
-2.210e-04,0.08
-2.200e-04,0.08
-2.190e-04,0.08
-2.180e-04,0.12
-2.170e-04,0.08
-2.160e-04,0.08
-2.150e-04,0.08
-2.140e-04,0.08
-2.130e-04,0.12
-2.120e-04,0.08
-2.110e-04,0.08
-2.100e-04,0.08
-2.090e-04,0.12
-2.080e-04,0.08
-2.070e-04,0.12
-2.060e-04,0.08
-2.050e-04,0.16
-2.040e-04,0.08
-2.030e-04,0.12
-2.020e-04,0.12
-2.010e-04,0.08
-2.000e-04,0.08
-1.990e-04,0.12
-1.980e-04,0.08
-1.970e-04,0.08
-1.960e-04,0.12
-1.950e-04,0.12
-1.940e-04,0.12
-1.930e-04,0.08
-1.920e-04,0.12
-1.910e-04,0.12
-1.900e-04,0.08
-1.890e-04,0.08
-1.880e-04,0.12
-1.870e-04,0.08
-1.860e-04,0.12
-1.850e-04,0.04
-1.840e-04,0.08
-1.830e-04,0.08
-1.820e-04,0.08
-1.810e-04,0.08
-1.800e-04,0.12
-1.790e-04,0.12
-1.780e-04,0.04
-1.770e-04,0.08
-1.760e-04,0.12
-1.750e-04,0.08
-1.740e-04,0.04
-1.730e-04,0.08
-1.720e-04,0.08
-1.710e-04,0.08
-1.700e-04,0.12
-1.690e-04,0.12
-1.680e-04,0.12
-1.670e-04,0.08
-1.660e-04,0.12
-1.650e-04,0.08
-1.640e-04,0.04
-1.630e-04,0.08
-1.620e-04,0.12
-1.610e-04,0.08
-1.600e-04,0.08
-1.590e-04,0.16
-1.580e-04,0
-1.570e-04,0.08
-1.560e-04,0.12
-1.550e-04,0.08
-1.540e-04,0.08
-1.530e-04,0.08
-1.520e-04,0.12
-1.510e-04,0.08
-1.500e-04,0.08
-1.490e-04,0.12
-1.480e-04,0.08
-1.470e-04,0.08
-1.460e-04,0.04
-1.450e-04,0.08
-1.440e-04,0.04
-1.430e-04,0.08
-1.420e-04,0.08
-1.410e-04,0.12
-1.400e-04,0.08
-1.390e-04,0.08
-1.380e-04,0.08
-1.370e-04,0.08
-1.360e-04,0.08
-1.350e-04,0.08
-1.340e-04,0.12
-1.330e-04,0.08
-1.320e-04,0.08
-1.310e-04,0.16
-1.300e-04,0.08
-1.290e-04,0.08
-1.280e-04,0.12
-1.270e-04,0.08
-1.260e-04,0.08
-1.250e-04,0.08
-1.240e-04,0.08
-1.230e-04,0.08
-1.220e-04,0.08
-1.210e-04,0.08
-1.200e-04,0.12
-1.190e-04,0.12
-1.180e-04,0.08
-1.170e-04,0.08
-1.160e-04,0.12
-1.150e-04,0.08
-1.140e-04,0.08
-1.130e-04,0.08
-1.120e-04,0.12
-1.110e-04,0.08
-1.100e-04,0.08
-1.090e-04,0.08
-1.080e-04,0.04
-1.070e-04,0.08
-1.060e-04,0.08
-1.050e-04,0.08
-1.040e-04,0.08
-1.030e-04,0.08
-1.020e-04,0.08
-1.010e-04,0.08
-1.000e-04,0.08
-9.900e-05,0.08
-9.800e-05,0.08
-9.700e-05,0.04
-9.600e-05,0.04
-9.500e-05,0.12
-9.400e-05,0.12
-9.300e-05,0.04
-9.200e-05,0.08
-9.100e-05,0.08
-9.000e-05,0.08
-8.900e-05,0.08
-8.800e-05,0.08
-8.700e-05,0.2
-8.600e-05,0.08
-8.500e-05,0.08
-8.400e-05,0.08
-8.300e-05,0.16
-8.200e-05,0.12
-8.100e-05,0.08
-8.000e-05,0.08
-7.900e-05,0.04
-7.800e-05,0.08
-7.700e-05,0.08
-7.600e-05,0.08
-7.500e-05,0.08
-7.400e-05,0.08
-7.300e-05,0.12
-7.200e-05,0.08
-7.100e-05,0.12
-7.000e-05,0.08
-6.900e-05,0.08
-6.800e-05,0.12
-6.700e-05,0.08
-6.600e-05,0.08
-6.500e-05,0.12
-6.400e-05,0.12
-6.300e-05,0
-6.200e-05,0.12
-6.100e-05,0.08
-6.000e-05,0.08
-5.900e-05,0.08
-5.800e-05,0.08
-5.700e-05,0.08
-5.600e-05,0.08
-5.500e-05,0.08
-5.400e-05,0.08
-5.300e-05,0.08
-5.200e-05,0.08
-5.100e-05,0.12
-5.000e-05,0.08
-4.900e-05,0.08
-4.800e-05,0.12
-4.700e-05,0.12
-4.600e-05,0.04
-4.500e-05,0.12
-4.400e-05,0.12
-4.300e-05,0.12
-4.200e-05,0.08
-4.100e-05,0.12
-4.000e-05,0.08
-3.900e-05,0.04
-3.800e-05,0.08
-3.700e-05,0.08
-3.600e-05,0.08
-3.500e-05,0.08
-3.400e-05,0.08
-3.300e-05,0.08
-3.200e-05,0.12
-3.100e-05,0.08
-3.000e-05,0.12
-2.900e-05,0.08
-2.800e-05,0.08
-2.700e-05,0.08
-2.600e-05,0.12
-2.500e-05,0.08
-2.400e-05,0.08
-2.300e-05,0.08
-2.200e-05,0.08
-2.100e-05,0.08
-2.000e-05,0.12
-1.900e-05,0.08
-1.800e-05,0.08
-1.700e-05,0.08
-1.600e-05,0.08
-1.500e-05,0.08
-1.400e-05,0.08
-1.300e-05,0.16
-1.200e-05,0.08
-1.100e-05,0.08
-1.000e-05,0.08
-9.000e-06,0.12
-8.000e-06,0.08
-7.000e-06,0.12
-6.000e-06,0.08
-5.000e-06,0.08
-4.000e-06,0.04
-3.000e-06,0.04
-2.000e-06,0.16
-1.000e-06,0.2
0.000e+00,0.12
1.000e-06,0.16
2.000e-06,0.12
3.000e-06,0.08
4.000e-06,0.12
5.000e-06,0.08
6.000e-06,0.12
7.000e-06,0.08
8.000e-06,0.04
9.000e-06,0
1.000e-05,0
1.100e-05,0
1.200e-05,0
1.300e-05,0.08
1.400e-05,0.08
1.500e-05,0.08
1.600e-05,0.12
1.700e-05,0.2
1.800e-05,0.24
1.900e-05,0.12
2.000e-05,0.12
2.100e-05,0.24
2.200e-05,0.2
2.300e-05,0.16
2.400e-05,0.12
2.500e-05,0.12
2.600e-05,0.12
2.700e-05,0.16
2.800e-05,0
2.900e-05,0.08
3.000e-05,0.08
3.100e-05,0
3.200e-05,0.08
3.300e-05,0.08
3.400e-05,0.08
3.500e-05,0.12
3.600e-05,0.08
3.700e-05,0.24
3.800e-05,0.2
3.900e-05,0.12
4.000e-05,0.16
4.100e-05,0.2
4.200e-05,0.08
4.300e-05,0.12
4.400e-05,0.12
4.500e-05,0.08
4.600e-05,0.12
4.700e-05,0.12
4.800e-05,0
4.900e-05,0.08
5.000e-05,0.04
5.100e-05,0.04
5.200e-05,0.08
5.300e-05,0.08
5.400e-05,0.04
5.500e-05,0.04
5.600e-05,0.08
5.700e-05,0.24
5.800e-05,0.2
5.900e-05,0.08
6.000e-05,0.08
6.100e-05,0.12
6.200e-05,0.12
6.300e-05,0.12
6.400e-05,0.08
6.500e-05,0.08
6.600e-05,0.12
6.700e-05,0.16
6.800e-05,0
6.900e-05,0.08
7.000e-05,0.08
7.100e-05,0.04
7.200e-05,0.08
7.300e-05,0.08
7.400e-05,0.08
7.500e-05,0.08
7.600e-05,0.08
7.700e-05,0.16
7.800e-05,0.16
7.900e-05,0.12
8.000e-05,0
8.100e-05,0.08
8.200e-05,0.08
8.300e-05,0.08
8.400e-05,0.08
8.500e-05,0.08
8.600e-05,0.12
8.700e-05,0.2
8.800e-05,0.04
8.900e-05,0.08
9.000e-05,0.08
9.100e-05,0.04
9.200e-05,0.08
9.300e-05,0.12
9.400e-05,0.08
9.500e-05,0.12
9.600e-05,0.08
9.700e-05,0.28
9.800e-05,0.2
9.900e-05,0.16
1.000e-04,0.16
1.010e-04,0.16
1.020e-04,0.12
1.030e-04,0.12
1.040e-04,0.12
1.050e-04,0.2
1.060e-04,0.12
1.070e-04,0.2
1.080e-04,0.04
1.090e-04,0.12
1.100e-04,0.16
1.110e-04,0.12
1.120e-04,0.12
1.130e-04,0.2
1.140e-04,0.16
1.150e-04,0.16
1.160e-04,0.16
1.170e-04,0.24
1.180e-04,0.24
1.190e-04,0.16
1.200e-04,0.2
1.210e-04,0.24
1.220e-04,0.16
1.230e-04,0.16
1.240e-04,0.2
1.250e-04,0.2
1.260e-04,0.24
1.270e-04,0.32
1.280e-04,0.12
1.290e-04,0.16
1.300e-04,0.2
1.310e-04,0.2
1.320e-04,0.24
1.330e-04,0.24
1.340e-04,0.2
1.350e-04,0.24
1.360e-04,0.24
1.370e-04,0.36
1.380e-04,0.32
1.390e-04,0.28
1.400e-04,0.28
1.410e-04,0.28
1.420e-04,0.2
1.430e-04,0.24
1.440e-04,0.28
1.450e-04,0.32
1.460e-04,0.28
1.470e-04,0.4
1.480e-04,0.24
1.490e-04,0.28
1.500e-04,0.36
1.510e-04,0.28
1.520e-04,0.36
1.530e-04,0.36
1.540e-04,0.4
1.550e-04,0.36
1.560e-04,0.36
1.570e-04,0.44
1.580e-04,0.48
1.590e-04,0.36
1.600e-04,0.4
1.610e-04,0.44
1.620e-04,0.44
1.630e-04,0.44
1.640e-04,0.4
1.650e-04,0.44
1.660e-04,0.44
1.670e-04,0.52
1.680e-04,0.4
1.690e-04,0.44
1.700e-04,0.52
1.710e-04,0.52
1.720e-04,0.52
1.730e-04,0.56
1.740e-04,0.56
1.750e-04,0.48
1.760e-04,0.52
1.770e-04,0.64
1.780e-04,0.64
1.790e-04,0.56
1.800e-04,0.6
1.810e-04,0.6
1.820e-04,0.56
1.830e-04,0.6
1.840e-04,0.6
1.850e-04,0.6
1.860e-04,0.64
1.870e-04,0.72
1.880e-04,0.6
1.890e-04,0.68
1.900e-04,0.68
1.910e-04,0.68
1.920e-04,0.68
1.930e-04,0.76
1.940e-04,0.72
1.950e-04,0.64
1.960e-04,0.8
1.970e-04,0.88
1.980e-04,0.88
1.990e-04,0.84
2.000e-04,0.76
2.010e-04,0.8
2.020e-04,0.8
2.030e-04,0.76
2.040e-04,0.8
2.050e-04,0.84
2.060e-04,0.8
2.070e-04,0.96
2.080e-04,0.84
2.090e-04,0.84
2.100e-04,0.88
2.110e-04,0.88
2.120e-04,0.92
2.130e-04,0.96
2.140e-04,0.96
2.150e-04,0.92
2.160e-04,0.92
2.170e-04,1.08
2.180e-04,0.96
2.190e-04,1
2.200e-04,1
2.210e-04,1.08
2.220e-04,1.04
2.230e-04,1.04
2.240e-04,1.08
2.250e-04,1.08
2.260e-04,1.12
2.270e-04,1.2
2.280e-04,1.04
2.290e-04,1.12
2.300e-04,1.12
2.310e-04,1.12
2.320e-04,1.12
2.330e-04,1.24
2.340e-04,1.2
2.350e-04,1.2
2.360e-04,1.2
2.370e-04,1.4
2.380e-04,1.28
2.390e-04,1.24
2.400e-04,1.24
2.410e-04,1.36
2.420e-04,1.28
2.430e-04,1.24
2.440e-04,1.28
2.450e-04,1.32
2.460e-04,1.28
2.470e-04,1.36
2.480e-04,1.24
2.490e-04,1.36
2.500e-04,1.28
2.510e-04,1.36
2.520e-04,1.36
2.530e-04,1.36
2.540e-04,1.4
2.550e-04,1.4
2.560e-04,1.44
2.570e-04,1.52
2.580e-04,1.48
2.590e-04,1.52
2.600e-04,1.48
2.610e-04,1.52
2.620e-04,1.48
2.630e-04,1.36
2.640e-04,1.52
2.650e-04,1.52
2.660e-04,1.52
2.670e-04,1.6
2.680e-04,1.44
2.690e-04,1.48
2.700e-04,1.52
2.710e-04,1.52
2.720e-04,1.56
2.730e-04,1.56
2.740e-04,1.6
2.750e-04,1.6
2.760e-04,1.6
2.770e-04,1.68
2.780e-04,1.68
2.790e-04,1.64
2.800e-04,1.64
2.810e-04,1.64
2.820e-04,1.64
2.830e-04,1.64
2.840e-04,1.64
2.850e-04,1.64
2.860e-04,1.72
2.870e-04,1.72
2.880e-04,1.56
2.890e-04,1.68
2.900e-04,1.68
2.910e-04,1.64
2.920e-04,1.72
2.930e-04,1.72
2.940e-04,1.72
2.950e-04,1.72
2.960e-04,1.72
2.970e-04,1.84
2.980e-04,1.8
2.990e-04,1.72
3.000e-04,1.8
3.010e-04,1.76
3.020e-04,1.76
3.030e-04,1.8
3.040e-04,1.76
3.050e-04,1.8
3.060e-04,1.8
3.070e-04,1.88
3.080e-04,1.72
3.090e-04,1.76
3.100e-04,1.76
3.110e-04,1.76
3.120e-04,1.8
3.130e-04,1.84
3.140e-04,1.76
3.150e-04,1.8
3.160e-04,1.76
3.170e-04,1.88
3.180e-04,1.88
3.190e-04,1.8
3.200e-04,1.8
3.210e-04,1.84
3.220e-04,1.8
3.230e-04,1.8
3.240e-04,1.8
3.250e-04,1.84
3.260e-04,1.8
3.270e-04,1.88
3.280e-04,1.72
3.290e-04,1.76
3.300e-04,1.8
3.310e-04,1.8
3.320e-04,1.84
3.330e-04,1.88
3.340e-04,1.84
3.350e-04,1.84
3.360e-04,1.8
3.370e-04,1.88
3.380e-04,1.92
3.390e-04,1.84
3.400e-04,1.88
3.410e-04,1.84
3.420e-04,1.84
3.430e-04,1.84
3.440e-04,1.84
3.450e-04,1.84
3.460e-04,1.8
3.470e-04,1.96
3.480e-04,1.76
3.490e-04,1.8
3.500e-04,1.84
3.510e-04,1.8
3.520e-04,1.88
3.530e-04,1.84
3.540e-04,1.8
3.550e-04,1.8
3.560e-04,1.84
3.570e-04,1.92
3.580e-04,1.96
3.590e-04,1.84
3.600e-04,1.84
3.610e-04,1.88
3.620e-04,1.84
3.630e-04,1.88
3.640e-04,1.8
3.650e-04,1.84
3.660e-04,1.8
3.670e-04,1.88
3.680e-04,1.72
3.690e-04,1.84
3.700e-04,1.8
3.710e-04,1.8
3.720e-04,1.84
3.730e-04,1.8
3.740e-04,1.88
3.750e-04,1.84
3.760e-04,1.8
3.770e-04,2.04
3.780e-04,1.96
3.790e-04,1.84
3.800e-04,1.84
3.810e-04,1.88
3.820e-04,1.8
3.830e-04,1.84
3.840e-04,1.8
3.850e-04,1.8
3.860e-04,1.84
3.870e-04,1.84
3.880e-04,1.72
3.890e-04,1.84
3.900e-04,1.8
3.910e-04,1.76
3.920e-04,1.84
3.930e-04,1.8
3.940e-04,1.84
3.950e-04,1.8
3.960e-04,1.8
3.970e-04,1.88
3.980e-04,1.92
3.990e-04,1.84
4.000e-04,1.76
4.010e-04,1.84
4.020e-04,1.76
4.030e-04,1.76
4.040e-04,1.76
4.050e-04,1.8
4.060e-04,1.84
4.070e-04,1.88
4.080e-04,1.72
4.090e-04,1.8
4.100e-04,1.8
4.110e-04,1.8
4.120e-04,1.84
4.130e-04,1.8
4.140e-04,1.84
4.150e-04,1.88
4.160e-04,1.76
4.170e-04,1.88
4.180e-04,1.88
4.190e-04,1.8
4.200e-04,1.8
4.210e-04,1.8
4.220e-04,1.84
4.230e-04,1.72
4.240e-04,1.76
4.250e-04,1.76
4.260e-04,1.84
4.270e-04,1.84
4.280e-04,1.68
4.290e-04,1.8
4.300e-04,1.8
4.310e-04,1.84
4.320e-04,1.8
4.330e-04,1.76
4.340e-04,1.8
4.350e-04,1.84
4.360e-04,1.8
4.370e-04,1.88
4.380e-04,1.84
4.390e-04,1.8
4.400e-04,1.84
4.410e-04,1.84
4.420e-04,1.8
4.430e-04,1.8
4.440e-04,1.76
4.450e-04,1.76
4.460e-04,1.8
4.470e-04,1.88
4.480e-04,1.68
4.490e-04,1.76
4.500e-04,1.76
4.510e-04,1.8
4.520e-04,1.76
4.530e-04,1.8
4.540e-04,1.8
4.550e-04,1.76
4.560e-04,1.84
4.570e-04,1.92
4.580e-04,1.88
4.590e-04,1.8
4.600e-04,1.8
4.610e-04,1.8
4.620e-04,1.8
4.630e-04,1.8
4.640e-04,1.8
4.650e-04,1.8
4.660e-04,1.8
4.670e-04,1.88
4.680e-04,1.72
4.690e-04,1.8
4.700e-04,1.8
4.710e-04,1.76
4.720e-04,1.8
4.730e-04,1.8
4.740e-04,1.8
4.750e-04,1.8
4.760e-04,1.72
4.770e-04,1.88
4.780e-04,1.84
4.790e-04,1.84
4.800e-04,1.8
4.810e-04,1.88
4.820e-04,1.8
4.830e-04,1.76
4.840e-04,1.8
4.850e-04,1.76
4.860e-04,1.8
4.870e-04,1.88
4.880e-04,1.68
4.890e-04,1.76
4.900e-04,1.8
4.910e-04,1.76
4.920e-04,1.76
4.930e-04,1.8
4.940e-04,1.84
4.950e-04,1.8
4.960e-04,1.8
4.970e-04,1.84
4.980e-04,1.88
4.990e-04,1.84
5.000e-04,1.8
5.010e-04,1.8
5.020e-04,1.84
5.030e-04,1.8
5.040e-04,1.8
5.050e-04,1.8
5.060e-04,1.8
5.070e-04,1.88
5.080e-04,1.72
5.090e-04,1.76
5.100e-04,1.8
5.110e-04,1.84
5.120e-04,1.8
5.130e-04,1.8
5.140e-04,1.8
5.150e-04,1.84
5.160e-04,1.8
5.170e-04,1.92
5.180e-04,1.88
5.190e-04,1.84
5.200e-04,1.8
5.210e-04,1.84
5.220e-04,1.8
5.230e-04,1.8
5.240e-04,1.8
5.250e-04,1.8
5.260e-04,1.8
5.270e-04,1.88
5.280e-04,1.72
5.290e-04,1.8
5.300e-04,1.76
5.310e-04,1.76
5.320e-04,1.84
5.330e-04,1.8
5.340e-04,1.76
5.350e-04,1.76
5.360e-04,1.8
5.370e-04,1.88
5.380e-04,1.8
5.390e-04,1.8
5.400e-04,1.8
5.410e-04,1.88
5.420e-04,1.8
5.430e-04,1.8
5.440e-04,1.8
5.450e-04,1.8
5.460e-04,1.8
5.470e-04,1.84
5.480e-04,1.68
5.490e-04,1.76
5.500e-04,1.76
5.510e-04,1.76
5.520e-04,1.8
5.530e-04,1.8
5.540e-04,1.8
5.550e-04,1.76
5.560e-04,1.8
5.570e-04,1.84
5.580e-04,1.88
5.590e-04,1.8
5.600e-04,1.84
5.610e-04,1.68
5.620e-04,1.8
5.630e-04,1.8
5.640e-04,1.8
5.650e-04,1.8
5.660e-04,1.76
5.670e-04,1.84
5.680e-04,1.68
5.690e-04,1.76
5.700e-04,1.8
5.710e-04,1.76
5.720e-04,1.84
5.730e-04,1.8
5.740e-04,1.8
5.750e-04,1.8
5.760e-04,1.8
5.770e-04,1.88
5.780e-04,1.88
5.790e-04,1.8
5.800e-04,1.8
5.810e-04,1.8
5.820e-04,1.8
5.830e-04,1.8
5.840e-04,1.76
5.850e-04,1.84
5.860e-04,1.8
5.870e-04,1.8
5.880e-04,1.72
5.890e-04,1.76
5.900e-04,1.76
5.910e-04,1.76
5.920e-04,1.8
5.930e-04,1.8
5.940e-04,1.8
5.950e-04,1.8
5.960e-04,1.8
5.970e-04,1.88
5.980e-04,1.88
5.990e-04,1.84
6.000e-04,1.8
6.010e-04,1.8
6.020e-04,1.8
6.030e-04,1.8
6.040e-04,1.8
6.050e-04,1.84
6.060e-04,1.8
6.070e-04,1.88
6.080e-04,1.76
6.090e-04,1.8
6.100e-04,1.8
6.110e-04,1.76
6.120e-04,1.8
6.130e-04,1.8
6.140e-04,1.8
6.150e-04,1.8
6.160e-04,1.76
6.170e-04,1.84
6.180e-04,1.88
6.190e-04,1.8
6.200e-04,1.8
6.210e-04,1.84
6.220e-04,1.8
6.230e-04,1.84
6.240e-04,1.84
6.250e-04,1.8
6.260e-04,1.8
6.270e-04,1.84
6.280e-04,1.68
6.290e-04,1.76
6.300e-04,1.8
6.310e-04,1.8
6.320e-04,1.8
6.330e-04,1.8
6.340e-04,1.8
6.350e-04,1.84
6.360e-04,1.76
6.370e-04,1.88
6.380e-04,1.92
6.390e-04,1.8
6.400e-04,1.8
6.410e-04,1.8
6.420e-04,1.76
6.430e-04,1.8
6.440e-04,1.8
6.450e-04,1.84
6.460e-04,1.8
6.470e-04,1.84
6.480e-04,1.72
6.490e-04,1.72
6.500e-04,1.76
6.510e-04,1.76
6.520e-04,1.8
6.530e-04,1.8
6.540e-04,1.8
6.550e-04,1.76
6.560e-04,1.76
6.570e-04,1.84
6.580e-04,1.88
6.590e-04,1.8
6.600e-04,1.8
6.610e-04,1.88
6.620e-04,1.76
6.630e-04,1.8
6.640e-04,1.8
6.650e-04,1.8
6.660e-04,1.8
6.670e-04,1.84
6.680e-04,1.68
6.690e-04,1.76
6.700e-04,1.76
6.710e-04,1.8
6.720e-04,1.84
6.730e-04,1.8
6.740e-04,1.8
6.750e-04,1.72
6.760e-04,1.8
6.770e-04,1.84
6.780e-04,1.84
6.790e-04,1.76
6.800e-04,1.8
6.810e-04,1.84
6.820e-04,1.8
6.830e-04,1.8
6.840e-04,1.8
6.850e-04,1.8
6.860e-04,1.8
6.870e-04,1.84
6.880e-04,1.76
6.890e-04,1.8
6.900e-04,1.84
6.910e-04,1.8
6.920e-04,1.8
6.930e-04,1.8
6.940e-04,1.8
6.950e-04,1.8
6.960e-04,1.84
6.970e-04,1.88
6.980e-04,1.84
6.990e-04,1.76
7.000e-04,1.76
7.010e-04,1.84
7.020e-04,1.76
7.030e-04,1.76
7.040e-04,1.76
7.050e-04,1.8
7.060e-04,1.76
7.070e-04,1.8
7.080e-04,1.68
7.090e-04,1.76
7.100e-04,1.8
7.110e-04,1.76
7.120e-04,1.8
7.130e-04,1.8
7.140e-04,1.8
7.150e-04,1.8
7.160e-04,1.76
7.170e-04,1.92
7.180e-04,1.88
7.190e-04,1.8
7.200e-04,1.8
7.210e-04,1.84
7.220e-04,1.8
7.230e-04,1.8
7.240e-04,1.8
7.250e-04,1.84
7.260e-04,1.84
7.270e-04,1.84
7.280e-04,1.72
7.290e-04,1.76
7.300e-04,1.8
7.310e-04,1.76
7.320e-04,1.8
7.330e-04,1.8
7.340e-04,1.84
7.350e-04,1.8
7.360e-04,1.72
7.370e-04,1.84
7.380e-04,1.88
7.390e-04,1.84
7.400e-04,1.76
7.410e-04,1.8
7.420e-04,1.8
7.430e-04,1.8
7.440e-04,1.76
7.450e-04,1.8
7.460e-04,1.8
7.470e-04,1.8
7.480e-04,1.72
7.490e-04,1.72
7.500e-04,1.76
7.510e-04,1.76
7.520e-04,1.8
7.530e-04,1.76
7.540e-04,1.84
7.550e-04,1.8
7.560e-04,1.8
7.570e-04,1.92
7.580e-04,1.88
7.590e-04,1.8
7.600e-04,1.8
7.610e-04,1.84
7.620e-04,1.8
7.630e-04,1.84
7.640e-04,1.8
7.650e-04,1.8
7.660e-04,1.8
7.670e-04,1.8
7.680e-04,1.76
7.690e-04,1.72
7.700e-04,1.84
7.710e-04,1.8
7.720e-04,1.8
7.730e-04,1.76
7.740e-04,1.8
7.750e-04,1.8
7.760e-04,1.84
7.770e-04,1.84
7.780e-04,1.88
7.790e-04,1.8
7.800e-04,1.8
7.810e-04,1.8
7.820e-04,1.8
7.830e-04,1.8
7.840e-04,1.8
7.850e-04,1.76
7.860e-04,1.8
7.870e-04,1.84
7.880e-04,1.76
7.890e-04,1.72
7.900e-04,1.72
7.910e-04,1.8
7.920e-04,1.8
7.930e-04,1.8
7.940e-04,1.8
7.950e-04,1.8
7.960e-04,1.8
7.970e-04,1.88
7.980e-04,1.88
7.990e-04,1.8
8.000e-04,1.84
8.010e-04,1.8
8.020e-04,1.76
8.030e-04,1.8
8.040e-04,1.76
8.050e-04,1.84
8.060e-04,1.76
8.070e-04,1.84
8.080e-04,1.72
8.090e-04,1.8
8.100e-04,1.8
8.110e-04,1.8
8.120e-04,1.8
8.130e-04,1.84
8.140e-04,1.8
8.150e-04,1.76
8.160e-04,1.8
8.170e-04,1.84
8.180e-04,1.92
8.190e-04,1.84
8.200e-04,1.8
8.210e-04,1.8
8.220e-04,1.8
8.230e-04,1.8
8.240e-04,1.84
8.250e-04,1.8
8.260e-04,1.8
8.270e-04,1.84
8.280e-04,1.68
8.290e-04,1.76
8.300e-04,1.76
8.310e-04,1.8
8.320e-04,1.8
8.330e-04,1.84
8.340e-04,1.76
